…
```r
as_data_frame(stormdata.raw)
```

```
# A tibble: 902,297 × 37
   STATE__           BGN_DATE BGN_TIME TIME_ZONE COUNTY COUNTYNAME  STATE
     <dbl>             <fctr>   <fctr>    <fctr>  <dbl>     <fctr> <fctr>
1        1  4/18/1950 0:00:00     0130       CST     97     MOBILE     AL
2        1  4/18/1950 0:00:00     0145       CST      3    BALDWIN     AL
3        1  2/20/1951 0:00:00     1600       CST     57    FAYETTE     AL
4        1   6/8/1951 0:00:00     0900       CST     89    MADISON     AL
5        1 11/15/1951 0:00:00     1500       CST     43    CULLMAN     AL
6        1 11/15/1951 0:00:00     2000       CST     77 LAUDERDALE     AL
7        1 11/16/1951 0:00:00     0100       CST      9     BLOUNT     AL
8        1  1/22/1952 0:00:00     0900       CST    123 TALLAPOOSA     AL
9        1  2/13/1952 0:00:00     2000       CST    125 TUSCALOOSA     AL
10       1  2/13/1952 0:00:00     2000       CST     57    FAYETTE     AL
# ... with 902,287 more rows, and 30 more variables: EVTYPE <fctr>,
#   BGN_RANGE <dbl>, BGN_AZI <fctr>, BGN_LOCATI <fctr>, END_DATE <fctr>,
#   END_TIME <fctr>, COUNTY_END <dbl>, COUNTYENDN <lgl>, END_RANGE <dbl>,
#   END_AZI <fctr>, END_LOCATI <fctr>, LENGTH <dbl>, WIDTH <dbl>, F <int>,
#   MAG <dbl>, FATALITIES <dbl>, INJURIES <dbl>, PROPDMG <dbl>,
#   PROPDMGEXP <fctr>, CROPDMG <dbl>, CROPDMGEXP <fctr>, WFO <fctr>,
#   STATEOFFIC <fctr>, ZONENAMES <fctr>, LATITUDE <dbl>, LONGITUDE <dbl>,
#   LATITUDE_E <dbl>, LONGITUDE_ <dbl>, REMARKS <fctr>, REFNUM <dbl>
```
…
```r
# floods in California from Xmas 2005 to around New Year 2006
# one record improperly entered as Billions instead of millions REFNUM=605943
ca.flood <- stormdata %>%
  filter(DATE >= "2005-12-25" & DATE <= "2006-01-02" & STATE == "CA" & PROPDMG > 0) %>%
  arrange(DATE) %>%
  select(REFNUM, DATE, STATE, PROPDMG, PROPDMGEXP, CROPDMG, CROPDMGEXP, REMARKS)

as_data_frame(ca.flood)
```

```
# A tibble: 59 × 8
   REFNUM       DATE  STATE PROPDMG PROPDMGEXP CROPDMG CROPDMGEXP
    <dbl>     <dttm> <fctr>   <dbl>     <fctr>   <dbl>     <fctr>
1  567175 2005-12-26     CA    20.0          K       0           
2  567179 2005-12-28     CA    55.9          M       0           
3  567180 2005-12-28     CA    10.0          K       0           
4  567184 2005-12-29     CA    60.8          M       8          M
5  567185 2005-12-29     CA     5.0          K       0           
6  567186 2005-12-30     CA     5.0          K       0           
7  567187 2005-12-30     CA     5.0          K       0           
8  567193 2005-12-30     CA     1.0          M       0           
9  567197 2005-12-31     CA     1.0          M       0           
10 567198 2005-12-31     CA     1.0          M       0           
# ... with 49 more rows, and 1 more variables: REMARKS <chr>
```
…
# save stormdata after corrections
save(stormdata, file = paste(project.data, "stormdata.rda", sep = "/"))
```


This is a view of the data frame that we will use in our analysis.

```r
as_data_frame(stormdata)
```

```
# A tibble: 902,297 × 13
   REFNUM       DATE  STATE COUNTY COUNTYNAME  EVTYPE FATALITIES INJURIES
    <dbl>     <dttm> <fctr>  <dbl>     <fctr>  <fctr>      <dbl>    <dbl>
1       1 1950-04-18     AL     97     MOBILE TORNADO          0       15
2       2 1950-04-18     AL      3    BALDWIN TORNADO          0        0
3       3 1951-02-20     AL     57    FAYETTE TORNADO          0        2
4       4 1951-06-08     AL     89    MADISON TORNADO          0        2
5       5 1951-11-15     AL     43    CULLMAN TORNADO          0        2
6       6 1951-11-15     AL     77 LAUDERDALE TORNADO          0        6
7       7 1951-11-16     AL      9     BLOUNT TORNADO          0        1
8       8 1952-01-22     AL    123 TALLAPOOSA TORNADO          0        0
9       9 1952-02-13     AL    125 TUSCALOOSA TORNADO          1       14
10     10 1952-02-13     AL     57    FAYETTE TORNADO          0        0
# ... with 902,287 more rows, and 5 more variables: PROPDMG <dbl>,
#   PROPDMGEXP <fctr>, CROPDMG <dbl>, CROPDMGEXP <fctr>, REMARKS <chr>
```
…
Create a small data frame without the `REMARKS` variable.

```r
stormdata.small <- stormdata %>% 
  select(REFNUM, DATE, STATE, COUNTY, COUNTYNAME, EVTYPE,     # reorder
         FATALITIES, INJURIES, PROPDMG, PROPDMGEXP, CROPDMG, CROPDMGEXP) 

as_data_frame(stormdata.small)
```

```
# A tibble: 902,297 × 12
   REFNUM       DATE  STATE COUNTY COUNTYNAME  EVTYPE FATALITIES INJURIES
    <dbl>     <dttm> <fctr>  <dbl>     <fctr>  <fctr>      <dbl>    <dbl>
1       1 1950-04-18     AL     97     MOBILE TORNADO          0       15
2       2 1950-04-18     AL      3    BALDWIN TORNADO          0        0
3       3 1951-02-20     AL     57    FAYETTE TORNADO          0        2
4       4 1951-06-08     AL     89    MADISON TORNADO          0        2
5       5 1951-11-15     AL     43    CULLMAN TORNADO          0        2
6       6 1951-11-15     AL     77 LAUDERDALE TORNADO          0        6
7       7 1951-11-16     AL      9     BLOUNT TORNADO          0        1
8       8 1952-01-22     AL    123 TALLAPOOSA TORNADO          0        0
9       9 1952-02-13     AL    125 TUSCALOOSA TORNADO          1       14
10     10 1952-02-13     AL     57    FAYETTE TORNADO          0        0
# ... with 902,287 more rows, and 4 more variables: PROPDMG <dbl>,
#   PROPDMGEXP <fctr>, CROPDMG <dbl>, CROPDMGEXP <fctr>
```
…
```r
# want to know how many levels this factor has
as_data_frame(unique(stormdata$EVTYPE), 10)
```

```
Warning in as.data.frame.factor(value, stringsAsFactors = FALSE, ...):
'row.names' is not a character vector of length 985 -- omitting it. Will be
an error!
```

```
# A tibble: 985 × 1
                       value
                      <fctr>
1                    TORNADO
2                  TSTM WIND
3                       HAIL
4              FREEZING RAIN
5                       SNOW
6      ICE STORM/FLASH FLOOD
7                   SNOW/ICE
8               WINTER STORM
9  HURRICANE OPAL/HIGH WINDS
10        THUNDERSTORM WINDS
# ... with 975 more rows
```
…
```r
# byEvent.0: dataset where main sort criteria is FATALITIES
byEvent.0 <- stormdata %>%
  select(EVTYPE, FATALITIES, INJURIES) %>%
  group_by(EVTYPE) %>%
  summarize(fatal.sum = sum(FATALITIES), injur.sum = sum(INJURIES)) %>%
  arrange(desc(fatal.sum), desc(injur.sum))

byEvent.0
```

```
# A tibble: 985 × 3
           EVTYPE fatal.sum injur.sum
           <fctr>     <dbl>     <dbl>
1         TORNADO      5633     91346
2  EXCESSIVE HEAT      1903      6525
3     FLASH FLOOD       978      1777
4            HEAT       937      2100
5       LIGHTNING       816      5230
6       TSTM WIND       504      6957
7           FLOOD       470      6789
8     RIP CURRENT       368       232
9       HIGH WIND       248      1137
10      AVALANCHE       224       170
# ... with 975 more rows
```


```r
# byEvent.1: dataset where the main sort criteria is INJURIES
byEvent.1 <- stormdata %>%
  select(EVTYPE, FATALITIES, INJURIES) %>%
  group_by(EVTYPE) %>%
  summarize(injur.sum = sum(INJURIES), fatal.sum = sum(FATALITIES)) %>%
  arrange(desc(injur.sum), desc(fatal.sum))

byEvent.1
```

```
# A tibble: 985 × 3
              EVTYPE injur.sum fatal.sum
              <fctr>     <dbl>     <dbl>
1            TORNADO     91346      5633
2          TSTM WIND      6957       504
3              FLOOD      6789       470
4     EXCESSIVE HEAT      6525      1903
5          LIGHTNING      5230       816
6               HEAT      2100       937
7          ICE STORM      1975        89
8        FLASH FLOOD      1777       978
9  THUNDERSTORM WIND      1488       133
10              HAIL      1361        15
# ... with 975 more rows
```
…
```
Source: local data frame [902,297 x 7]
Groups: EVTYPE [985]

    EVTYPE PROPDMG PROPDMGEXP CROPDMG CROPDMGEXP PROPDMG.K CROPDMG.K
    <fctr>   <dbl>     <fctr>   <dbl>     <fctr>     <dbl>     <dbl>
1  TORNADO    25.0          K       0                 25.0         0
2  TORNADO     2.5          K       0                  2.5         0
3  TORNADO    25.0          K       0                 25.0         0
4  TORNADO     2.5          K       0                  2.5         0
5  TORNADO     2.5          K       0                  2.5         0
6  TORNADO     2.5          K       0                  2.5         0
7  TORNADO     2.5          K       0                  2.5         0
8  TORNADO     2.5          K       0                  2.5         0
9  TORNADO    25.0          K       0                 25.0         0
10 TORNADO    25.0          K       0                 25.0         0
# ... with 902,287 more rows
```
…
```r
# convert damage to million and put it on new variable
byDamage.million <- byDamage %>%
  select(EVTYPE, PROPDMG.K, CROPDMG.K) %>%
  mutate(propdmg.m = PROPDMG.K /1000, cropdmg.m = CROPDMG.K / 1000) %>%
  summarize(propdmg = sum(propdmg.m), cropdmg = sum(cropdmg.m)) %>%
  mutate(damage.total = propdmg + cropdmg) %>%
  arrange(desc(damage.total))

byDamage.million
```

```
# A tibble: 985 × 4
              EVTYPE   propdmg    cropdmg damage.total
              <fctr>     <dbl>      <dbl>        <dbl>
1  HURRICANE/TYPHOON 69305.840  2607.8728    71913.713
2            TORNADO 56937.160   414.9531    57352.114
3        STORM SURGE 43323.536     0.0050    43323.541
4              FLOOD 29772.710  5661.9685    35434.678
5               HAIL 15732.267  3025.9545    18758.221
6        FLASH FLOOD 16140.812  1421.3171    17562.129
7            DROUGHT  1046.106 13972.5660    15018.672
8          HURRICANE 11868.319  2741.9100    14610.229
9        RIVER FLOOD  5118.945  5029.4590    10148.405
10         ICE STORM  3944.928  5022.1135     8967.041
# ... with 975 more rows
```
```r
byDamage.mm <- byDamage %>%
  summarize(propdmg.k = sum(PROPDMG.K), cropdmg.k = sum(CROPDMG.K)) %>%
  mutate(propdmg.m = propdmg.k / 1000, cropdmg.m = cropdmg.k / 1000) %>%
  select(EVTYPE, propdmg.m, cropdmg.m) %>%
  mutate(totaldmg.mm = propdmg.m + cropdmg.m) %>%
  mutate(totaldmg.bi = totaldmg.mm / 1000) %>%
  # arrange(desc(propdmg.m), desc(cropdmg.m))
  arrange(desc(totaldmg.mm))

byDamage.mm
```

```
# A tibble: 985 × 5
              EVTYPE propdmg.m  cropdmg.m totaldmg.mm totaldmg.bi
              <fctr>     <dbl>      <dbl>       <dbl>       <dbl>
1  HURRICANE/TYPHOON 69305.840  2607.8728   71913.713   71.913713
2            TORNADO 56937.160   414.9531   57352.114   57.352114
3        STORM SURGE 43323.536     0.0050   43323.541   43.323541
4              FLOOD 29772.710  5661.9685   35434.678   35.434678
5               HAIL 15732.267  3025.9545   18758.221   18.758221
6        FLASH FLOOD 16140.812  1421.3171   17562.129   17.562129
7            DROUGHT  1046.106 13972.5660   15018.672   15.018672
8          HURRICANE 11868.319  2741.9100   14610.229   14.610229
9        RIVER FLOOD  5118.945  5029.4590   10148.405   10.148404
10         ICE STORM  3944.928  5022.1135    8967.041    8.967041
# ... with 975 more rows
```
…
byYearEvent
```

```
Source: local data frame [83,144 x 6]
Groups: DATE [?]

         DATE  EVTYPE fatalities injuries propdmg.M cropdmg.M
       <dttm>  <fctr>      <dbl>    <dbl>     <dbl>     <dbl>
1  1950-01-03 TORNADO          0        7    3.0250         0
2  1950-01-13 TORNADO          1        1    0.0025         0
3  1950-01-25 TORNADO          0        5    0.5000         0
4  1950-01-26 TORNADO          0        2    0.0000         0
5  1950-02-11 TORNADO          1       23    0.5500         0
6  1950-02-12 TORNADO         35      169    3.1525         0
7  1950-02-13 TORNADO          9        9    0.0275         0
8  1950-02-27 TORNADO          0        0    0.0250         0
9  1950-03-01 TORNADO          0        0    0.0000         0
10 1950-03-16 TORNADO          0        0    0.0025         0
# ... with 83,134 more rows
```
…
byYearSummary <- byYearEvent %>%
  mutate(year = year(DATE)) %>%           # get only the year
  group_by(year) %>%                      # group by year
  summarize(fatalities = sum(fatalities), # calculate total fatalities and injuries
            injuries = sum(injuries),
            damage.mm = round(sum(propdmg.M) + sum(cropdmg.M), 0), # total in millions
            damage.bb = round(damage.mm / 1000, 2)) %>%       # total damage in billions
  arrange(desc(damage.bb))

byYearSummary
```

```
# A tibble: 62 × 5
    year fatalities injuries damage.mm damage.bb
   <dbl>      <dbl>    <dbl>     <dbl>     <dbl>
1   2005        469     1834    100825    100.83
2   2004        370     2426     26799     26.80
3   1993        298     2149     21987     21.99
4   2011       1002     7792     21556     21.56
5   2008        488     2703     17778     17.78
6   1998        687    11177     16111     16.11
7   1995       1491     4480     12733     12.73
8   1999        908     5148     12254     12.25
9   2001        469     2721     11844     11.84
10  2003        443     2931     11398     11.40
# ... with 52 more rows
```
…
