Analysis of weather impact on people and the economy
…
We will start by converting the monetary damages to a consistent units. We will choose thousands.

byDamage <- stormdata %>%
  select(EVTYPE, PROPDMG, PROPDMGEXP, CROPDMG, CROPDMGEXP) %>%
  group_by(EVTYPE) %>%
  # convert to unique dollar multiplier
  mutate(PROPDMG.K = ifelse(PROPDMGEXP == "K", PROPDMG * 1,
                     ifelse(PROPDMGEXP == "M", PROPDMG * 1000,
                     ifelse(PROPDMGEXP == "B", PROPDMG * 1E6, 0)))) %>%
  mutate(CROPDMG.K = ifelse(CROPDMGEXP == "K", CROPDMG * 1,
                     ifelse(CROPDMGEXP == "M", CROPDMG * 1000,
                     ifelse(CROPDMGEXP == "B", CROPDMG * 1E6, 0))))
byDamage

Source: local data frame [902,297 x 7]
Groups: EVTYPE [985]

    EVTYPE PROPDMG PROPDMGEXP CROPDMG CROPDMGEXP PROPDMG.K CROPDMG.K
    <fctr>   <dbl>     <fctr>   <dbl>     <fctr>     <dbl>     <dbl>
1  TORNADO    25.0          K       0                 25.0         0
2  TORNADO     2.5          K       0                  2.5         0
3  TORNADO    25.0          K       0                 25.0         0
4  TORNADO     2.5          K       0                  2.5         0
5  TORNADO     2.5          K       0                  2.5         0
6  TORNADO     2.5          K       0                  2.5         0
7  TORNADO     2.5          K       0                  2.5         0
8  TORNADO     2.5          K       0                  2.5         0
9  TORNADO    25.0          K       0                 25.0         0
10 TORNADO    25.0          K       0                 25.0         0
# ... with 902,287 more rows
…
byYearEvent

Source: local data frame [83,144 x 6]
Groups: DATE [?]

         DATE  EVTYPE fatalities injuries propdmg.M cropdmg.M
       <dttm>  <fctr>      <dbl>    <dbl>     <dbl>     <dbl>
1  1950-01-03 TORNADO          0        7    3.0250         0
2  1950-01-13 TORNADO          1        1    0.0025         0
3  1950-01-25 TORNADO          0        5    0.5000         0
4  1950-01-26 TORNADO          0        2    0.0000         0
5  1950-02-11 TORNADO          1       23    0.5500         0
6  1950-02-12 TORNADO         35      169    3.1525         0
7  1950-02-13 TORNADO          9        9    0.0275         0
8  1950-02-27 TORNADO          0        0    0.0250         0
9  1950-03-01 TORNADO          0        0    0.0000         0
10 1950-03-16 TORNADO          0        0    0.0025         0
# ... with 83,134 more rows
…
